\relax 
\providecommand\hyper@newdestlabel[2]{}
\catcode `"\active 
\providecommand\HyperFirstAtBeginDocument{\AtBeginDocument}
\HyperFirstAtBeginDocument{\ifx\hyper@anchor\@undefined
\global\let\oldcontentsline\contentsline
\gdef\contentsline#1#2#3#4{\oldcontentsline{#1}{#2}{#3}}
\global\let\oldnewlabel\newlabel
\gdef\newlabel#1#2{\newlabelxx{#1}#2}
\gdef\newlabelxx#1#2#3#4#5#6{\oldnewlabel{#1}{{#2}{#3}}}
\AtEndDocument{\ifx\hyper@anchor\@undefined
\let\contentsline\oldcontentsline
\let\newlabel\oldnewlabel
\fi}
\fi}
\global\let\hyper@last\relax 
\gdef\HyperFirstAtBeginDocument#1{#1}
\providecommand\HyField@AuxAddToFields[1]{}
\providecommand\HyField@AuxAddToCoFields[2]{}
\select@language{ngerman}
\@writefile{toc}{\select@language{ngerman}}
\@writefile{lof}{\select@language{ngerman}}
\@writefile{lot}{\select@language{ngerman}}
\select@language{ngerman}
\@writefile{toc}{\select@language{ngerman}}
\@writefile{lof}{\select@language{ngerman}}
\@writefile{lot}{\select@language{ngerman}}
\@writefile{toc}{\contentsline {chapter}{Zeichen, Benennungen und Einheiten}{2}{chapter*.2}}
\@writefile{toc}{\contentsline {chapter}{Vorwort}{3}{chapter*.6}}
\@writefile{toc}{\contentsline {chapter}{\numberline {1}Einleitung}{4}{chapter.1}}
\@writefile{lof}{\addvspace {10\p@ }}
\@writefile{lot}{\addvspace {10\p@ }}
\citation{Nguyen1991}
\@writefile{toc}{\contentsline {chapter}{\numberline {2}Stand der Technik}{5}{chapter.2}}
\@writefile{lof}{\addvspace {10\p@ }}
\@writefile{lot}{\addvspace {10\p@ }}
\@writefile{toc}{\contentsline {section}{\numberline {2.1}ML und Python}{5}{section.2.1}}
\@writefile{toc}{\contentsline {chapter}{\numberline {3}Pr\IeC {\"a}zisierung der Aufgbenstellung}{7}{chapter.3}}
\@writefile{lof}{\addvspace {10\p@ }}
\@writefile{lot}{\addvspace {10\p@ }}
\citation{Nielsen2015}
\citation{Debao1993}
\@writefile{toc}{\contentsline {chapter}{\numberline {4}Universality Theorem}{8}{chapter.4}}
\@writefile{lof}{\addvspace {10\p@ }}
\@writefile{lot}{\addvspace {10\p@ }}
\@writefile{toc}{\contentsline {section}{\numberline {4.1}Die F\IeC {\"a}higkeit beliebige Funktionen zu berechnen}{8}{section.4.1}}
\@writefile{toc}{\contentsline {subsection}{\numberline {4.1.1}Universilaty mit einem Eingang und einem Ausgang anschaulich}{8}{subsection.4.1.1}}
\@writefile{lof}{\contentsline {figure}{\numberline {1}{\ignorespaces Beispielhaftes Neuronales Netz mit 2 Layern.\relax }}{8}{figure.caption.9}}
\providecommand*\caption@xref[2]{\@setref\relax\@undefined{#1}}
\newlabel{fig:universality_1}{{1}{8}{Beispielhaftes Neuronales Netz mit 2 Layern.\relax }{figure.caption.9}{}}
\@writefile{lof}{\contentsline {figure}{\numberline {2}{\ignorespaces Sigmoid Aktivierungsfunktion.\relax }}{9}{figure.caption.10}}
\newlabel{fig:universality_2}{{2}{9}{Sigmoid Aktivierungsfunktion.\relax }{figure.caption.10}{}}
\@writefile{lof}{\contentsline {figure}{\numberline {3}{\ignorespaces Beispielhafte Verl\IeC {\"a}uf des gewichteten Ausgangs des Layer 2 f\IeC {\"u}r verschiedene Eingangsgr\IeC {\"o}\IeC {\ss }en $x_1$ bei verschiedenen Parametrierungen.\relax }}{10}{figure.caption.11}}
\newlabel{fig:universality_3}{{3}{10}{Beispielhafte Verläuf des gewichteten Ausgangs des Layer 2 für verschiedene Eingangsgrößen $x_1$ bei verschiedenen Parametrierungen.\relax }{figure.caption.11}{}}
\@writefile{lof}{\contentsline {figure}{\numberline {4}{\ignorespaces Beispielhafte Verl\IeC {\"a}uf des gewichteten Ausgangs des Layer 2 f\IeC {\"u}r verschiedene Eingangsgr\IeC {\"o}\IeC {\ss }en $x_1$ bei verschiedenen Parametrierungen.\relax }}{10}{figure.caption.12}}
\newlabel{fig:universality_4}{{4}{10}{Beispielhafte Verläuf des gewichteten Ausgangs des Layer 2 für verschiedene Eingangsgrößen $x_1$ bei verschiedenen Parametrierungen.\relax }{figure.caption.12}{}}
\@writefile{toc}{\contentsline {subsection}{\numberline {4.1.2}Universalit\IeC {\"a}t formal}{10}{subsection.4.1.2}}
\@writefile{toc}{\contentsline {chapter}{\numberline {5}Die Ergebnisse eines Deep Neural Net's (DNN) verbessern}{12}{chapter.5}}
\@writefile{lof}{\addvspace {10\p@ }}
\@writefile{lot}{\addvspace {10\p@ }}
\@writefile{toc}{\contentsline {chapter}{\numberline {6}2. Hauptabschnitt}{13}{chapter.6}}
\@writefile{lof}{\addvspace {10\p@ }}
\@writefile{lot}{\addvspace {10\p@ }}
\@writefile{toc}{\contentsline {section}{\numberline {6.1}Zusammenfassung}{13}{section.6.1}}
\citation{Nguyen1991,Duriez2017,Hagan2002,Nguyen}
\bibdata{Arbeit}
\@writefile{toc}{\contentsline {chapter}{\numberline {7}Gesamtzusammenfassung und weiterf\IeC {\"u}hrende Aufgaben}{14}{chapter.7}}
\@writefile{lof}{\addvspace {10\p@ }}
\@writefile{lot}{\addvspace {10\p@ }}
\bibcite{Debao1993}{1}
\bibcite{Duriez2017}{2}
\bibcite{Hagan2002}{3}
\bibcite{Nguyen1991}{4}
\bibcite{Nielsen2015}{5}
\bibcite{Nguyen}{6}
\bibstyle{gerplain}
\@writefile{toc}{\contentsline {chapter}{\nonumberline Literaturverzeichnis}{15}{chapter*.13}}
\@writefile{lof}{\addvspace {10\p@ }}
\@writefile{lot}{\addvspace {10\p@ }}
\@writefile{toc}{\contentsline {chapter}{Anlagen}{16}{chapter*.14}}
\setcounter{seiteeins}{-4}
